Prawdopodobienstwo 1 # A1 # B1 # C1 # D1
Prawdopodobienstwo 2 # A2 # B2 # C2 # D2
Prawdopodobienstwo 3 # A3 # B3 # C3 # D3
Prawdopodobienstwo 4 # A4 # B4 # C4 # D4
Prawdopodobienstwo 5 # A5 # B5 # C5 # D5
Prawdopodobienstwo 6 # A6 # B6 # C6 # D6
Prawdopodobienstwo 7 # A7 # B7 # C7 # D7
Prawdopodobienstwo 8 # A8 # B8 # C8 # D8
Prawdopodobienstwo 9 # A9 # B9 # C9 # D9
Prawdopodobienstwo 10 # A10 # B10 # C10 # D10
